[
  {
    "component": "div",
    "class": "px-6 py-2",
    "children": [
      {
        "label": "Bag Type",
        "name": "bagType",
        "help": "Specify the bag type",
        "validation": "required",
        "validationMessages": {
          "required": "Please specify the bag type"
        }
      }
    ]
  }
]