[
  {
    "component": "div",
    "class": "px-6 py-2 grid grid-cols-2 space-x-2",
    "children": [
      {
        "component": "p",
        "text": "In the past 12 months have you:",
        "class": "col-span-2 font-medium my-3"
      },
      {
        "label": "Received or given money, goods or favours in exchange for sexual activities?",
        "name": "haveReceivedOrGivenAnySexualFavours",
        "type": "radio",
        "options": 0,
        "value": "false",    
        "validation": "required",
        "validationMessages": {
          "required": "Please enter a value"
        }
      },
      {
        "label": "Had sexual activity with a person whose background you do not know?",
        "name": "haveHadRecklessSex",
        "type": "radio",
        "options": 0,
        "value": "false",    
        "validation": "required",
        "validationMessages": {
          "required": "Please enter a value"
        }
      },
      {
        "label": "Been raped or sodomized?",
        "name": "beenRapedOrSodomised",
        "type": "radio",
        "options": 0,
        "value": "false",    
        "validation": "required",
        "validationMessages": {
          "required": "Please enter a value"
        }
      },
      {
        "label": "Had a stab wound or had an accidental needle stick injury e.g. injection needle?",
        "name": "haveAnyStubWoundOrAccidentalNeedleStickInjury",
        "type": "radio",
        "options": 0,
        "value": "false",    
        "validation": "required",
        "validationMessages": {
          "required": "Please enter a value"
        }
      },
      {
        "label": "Had a sexually transmitted disease (STD)?",
        "name": "haveHadSTDs",
        "type": "radio",
        "options": 0,
        "value": "false",    
        "validation": "required",
        "validationMessages": {
          "required": "Please enter a value"
        }
      },
      {
        "label": "Live with or had sexual contact with someone with yellow eyes or yellow skin?",
        "name": "haveSexualContactOrLivedWithSomeoneWithYellowEyesOrSkin",
        "type": "radio",
        "options": 0,
        "value": "false",    
        "validation": "required",
        "validationMessages": {
          "required": "Please enter a value"
        }
      },
      {
        "label": "Had sexual activity with anyone besides your regular sex partner?",
        "name": "haveAnySexBesidesRegularPartner",
        "type": "radio",
        "options": 0,
        "value": "false",
        "validation": "required",
        "validationMessages": {
          "required": "Please enter a value"
        }
      },
      {
        "component": "div",
        "text": "Have you ever:",
        "class": "col-span-2 font-medium my-3"
      },
      {
        "label": "Had yellow eyes or yellow skin?",
        "name": "haveHadYellowEyesOrSkin",
        "type": "radio",
        "options": 0,
        "value": "false",    
        "validation": "required",
        "validationMessages": {
          "required": "Please enter a value"
        }
      },
      {
        "label": "Injected yourself or been injected, besides in a health facility?",
        "name": "anyInjectionOutsideHealthFacility",
        "type": "radio",
        "options": 0,
        "value": "false",    
        "validation": "required",
        "validationMessages": {
          "required": "Please enter a value"
        }
      },
      {
        "label": "Used Non-medical drugs such as Marijuana, Cocaine etc?",
        "name": "haveUsedNonMedicinalDrugs",
        "type": "radio",
        "value": "false",
        "options": 0,
        "validation": "required",
        "validationMessages": {
          "required": "Please enter a value"
        }
      },
      {
        "label": "Have you or your partner been tested for HIV?",
        "name": "haveYouAndPartnerBeenTestedForHIV",
        "type": "radio",
        "options": 0,
        "value": "false",    
        "validation": "required",
        "validationMessages": {
          "required": "Please enter a value"
        }
      },
      {
        "label": "Do you consider your blood safe to transfuse to a patient?",
        "name": "doYouConsiderYourBloodSafe",
        "type": "radio",
        "options": 0,
        "value": "true",    
        "validation": "required",
        "validationMessages": {
          "required": "Please enter a value"
        }
      }
    ]
  }
]