[
    {
      "component": "div",
      "class": "px-6 py-2",
      "children": [
        {
          "label": "Status",
          "type":"suggest",
          "options":0,
          "name": "encounterStatus",
          "validation": "required",
          "validationMessages": {
            "required": "Please specify status"
          }
        }]
    }
  ]