[
    {
      "component": "div",
      "class": "px-6 py-2",
      "children": [
        {
          "label": "New donation number",
          "type": "text",
          "name": "donationNumber",
          "validation": "required|min:1,length|max:17,length",
          "validationMessages": {
            "required": "Please specify new donation number"
          },
          "error-behavior":"live"
        }
      ]
    }
  ]